{ "events": [ { "timestamp": { "timestamp": "5000000" } }, { "label": { "plus": " " } }, { "label": { "item": "7." } }, { "timestamp": { "timestamp": "6900000" } }, { "label": { "plus": " " } }, { "label": { "item": "červen" } }, { "timestamp": { "timestamp": "10900000" } }, { "label": { "plus": " " } }, { "label": { "item": "nerozsekl" } }, { "timestamp": { "timestamp": "18200000" } }, { "label": { "plus": " " } }, { "label": { "item": "krizi" } } ], "receivedAt": "29636800" }
{ "events": [ { "timestamp": { "timestamp": "21700000" } }, { "label": { "plus": " " } }, { "label": { "item": "vlády" } } ], "receivedAt": "30843860" }
{ "events": [ { "timestamp": { "timestamp": "26200000" } }, { "timestamp": { "recovery": "26200000" } }, { "label": { "plus": " " } }, { "label": { "item": "věci" } } ], "receivedAt": "42323190" }
{ "events": [ { "timestamp": { "timestamp": "28900000" } }, { "timestamp": { "recovery": "28900000" } }, { "label": { "plus": " " } }, { "label": { "item": "veřejné" } } ], "receivedAt": "42843180" }
{ "events": [ { "timestamp": { "timestamp": "33700000" } }, { "timestamp": { "recovery": "33700000" } }, { "label": { "plus": " " } }, { "label": { "item": "vytkly" } }, { "timestamp": { "timestamp": "37100000" } }, { "timestamp": { "recovery": "37100000" } }, { "label": { "plus": " " } }, { "label": { "item": "další" } }, { "timestamp": { "timestamp": "41100000" } }, { "label": { "plus": " " } }, { "label": { "item": "datum" } } ], "receivedAt": "53440980" }
{ "events": [ { "timestamp": { "timestamp": "44200000" } }, { "label": { "plus": " " } }, { "label": { "item": "ne" } } ], "receivedAt": "53943830" }
{ "events": [ { "timestamp": { "timestamp": "46200000" } }, { "label": { "noise": "[h::breath]" } }, { "timestamp": { "timestamp": "48400000" } }, { "timestamp": { "recovery": "48400000" } }, { "label": { "plus": " " } }, { "label": { "item": "tentokrát" } }, { "timestamp": { "timestamp": "53900000" } }, { "timestamp": { "recovery": "53900000" } }, { "label": { "plus": " " } }, { "label": { "item": "do" } } ], "receivedAt": "59247060" }
{ "events": [ { "label": { "plus": " " } }, { "label": { "item": "konce" } }, { "timestamp": { "timestamp": "58300000" } }, { "timestamp": { "recovery": "58300000" } }, { "label": { "plus": " " } }, { "label": { "item": "měsíce" } }, { "timestamp": { "timestamp": "63900000" } }, { "label": { "plus": " " } }, { "label": { "item": "žádají" } } ], "receivedAt": "59744540" }
{ "events": [ { "timestamp": { "timestamp": "68400000" } }, { "label": { "plus": " " } }, { "label": { "item": "změny" } }, { "timestamp": { "timestamp": "71600000" } }, { "label": { "plus": " " } }, { "label": { "item": "v" } } ], "receivedAt": "70443020" }
{ "events": [ { "timestamp": { "timestamp": "72600000" } }, { "timestamp": { "recovery": "72600000" } }, { "label": { "plus": " " } }, { "label": { "item": "kabinetu" } }, { "timestamp": { "timestamp": "77600000" } }, { "timestamp": { "recovery": "77600000" } }, { "label": { "plus": " " } }, { "label": { "item": "nebo" } } ], "receivedAt": "70944700" }
{ "events": [ { "label": { "plus": " " } }, { "label": { "item": "třeba" } }, { "timestamp": { "timestamp": "82200000" } }, { "timestamp": { "recovery": "82200000" } }, { "label": { "plus": " " } }, { "label": { "item": "zákaz" } } ], "receivedAt": "81842350" }
{ "events": [ { "timestamp": { "timestamp": "87500000" } }, { "label": { "plus": " " } }, { "label": { "item": "anonymních" } }, { "timestamp": { "timestamp": "92900000" } }, { "timestamp": { "recovery": "92900000" } }, { "label": { "plus": " " } }, { "label": { "item": "akcí" } } ], "receivedAt": "82345520" }
{ "events": [ { "timestamp": { "timestamp": "97000000" } }, { "label": { "plus": " " } }, { "label": { "item": "všechno" } }, { "timestamp": { "timestamp": "100700000" } }, { "timestamp": { "recovery": "100700000" } }, { "label": { "plus": " " } }, { "label": { "item": "sepsané" } } ], "receivedAt": "97196440" }
{ "events": [ { "timestamp": { "timestamp": "105200000" } }, { "label": { "plus": " " } }, { "label": { "item": "dovětku" } } ], "receivedAt": "101149590" }
{ "events": [ { "timestamp": { "timestamp": "109800000" } }, { "timestamp": { "recovery": "109800000" } }, { "label": { "plus": " " } }, { "label": { "item": "koaliční" } } ], "receivedAt": "101741890" }
{ "events": [ { "timestamp": { "timestamp": "115200000" } }, { "timestamp": { "recovery": "115200000" } }, { "label": { "plus": " " } }, { "label": { "item": "smlouvy" } } ], "receivedAt": "121345820" }
{ "events": [ { "timestamp": { "timestamp": "119900000" } }, { "label": { "noise": "[n::silence]" } }, { "timestamp": { "timestamp": "121300000" } }, { "timestamp": { "recovery": "121300000" } }, { "label": { "plus": " " } }, { "label": { "item": "jinak" } }, { "timestamp": { "timestamp": "125500000" } }, { "timestamp": { "recovery": "125500000" } }, { "label": { "plus": " " } }, { "label": { "item": "odcházejí" } }, { "timestamp": { "timestamp": "132600000" } }, { "label": { "noise": "[h::breath]" } }, { "timestamp": { "timestamp": "136200000" } }, { "label": { "plus": " " } }, { "label": { "item": "premiér" } }, { "timestamp": { "timestamp": "139700000" } }, { "label": { "plus": " " } }, { "label": { "item": "kontroval" } }, { "timestamp": { "timestamp": "144200000" } }, { "label": { "plus": " " } }, { "label": { "item": "že" } }, { "label": { "plus": " " } }, { "label": { "item": "se" } } ], "receivedAt": "121945480" }
{ "events": [ { "timestamp": { "timestamp": "146800000" } }, { "label": { "plus": " " } }, { "label": { "item": "k" } } ], "receivedAt": "151143620" }
{ "events": [ { "timestamp": { "timestamp": "147800000" } }, { "timestamp": { "recovery": "147800000" } }, { "label": { "plus": " " } }, { "label": { "item": "výměně" } }, { "timestamp": { "timestamp": "151600000" } }, { "timestamp": { "recovery": "151600000" } }, { "label": { "plus": " " } }, { "label": { "item": "ministrů" } }, { "timestamp": { "timestamp": "156100000" } }, { "label": { "plus": " " } }, { "label": { "item": "tlačit" } }, { "timestamp": { "timestamp": "159900000" } }, { "label": { "plus": " " } }, { "label": { "item": "nenechá" } }, { "timestamp": { "timestamp": "163600000" } }, { "label": { "plus": " " } }, { "label": { "item": "a" } }, { "label": { "plus": " " } }, { "label": { "item": "hlavně" } }, { "timestamp": { "timestamp": "167500000" } }, { "label": { "plus": " " } }, { "label": { "item": "že" } }, { "timestamp": { "timestamp": "168900000" } }, { "label": { "plus": " " } }, { "label": { "item": "podstatné" } }, { "timestamp": { "timestamp": "174300000" } }, { "label": { "plus": " " } }, { "label": { "item": "jsou" } }, { "timestamp": { "timestamp": "176400000" } }, { "label": { "plus": " " } }, { "label": { "item": "pro" } }, { "label": { "plus": " " } }, { "label": { "item": "něj" } } ], "receivedAt": "156342770" }
{ "events": [ { "timestamp": { "timestamp": "179400000" } }, { "label": { "plus": " " } }, { "label": { "item": "reformy" } }, { "timestamp": { "timestamp": "183900000" } }, { "timestamp": { "recovery": "183900000" } }, { "label": { "noise": "[h::breath]" } }, { "timestamp": { "timestamp": "186100000" } }, { "timestamp": { "recovery": "186100000" } }, { "label": { "plus": " " } }, { "label": { "item": "a" } }, { "label": { "plus": " " } }, { "label": { "item": "právě" } }, { "timestamp": { "timestamp": "190500000" } }, { "label": { "plus": " " } }, { "label": { "item": "ty" } } ], "receivedAt": "167941550" }
{ "events": [ { "timestamp": { "timestamp": "192500000" } }, { "label": { "plus": " " } }, { "label": { "item": "začala" } } ], "receivedAt": "168441380" }
{ "events": [ { "timestamp": { "timestamp": "196300000" } }, { "timestamp": { "recovery": "196300000" } }, { "label": { "plus": " " } }, { "label": { "item": "schvalovat" } }, { "timestamp": { "timestamp": "201100000" } }, { "timestamp": { "recovery": "201100000" } }, { "label": { "plus": " " } }, { "label": { "item": "sněmovna" } }, { "timestamp": { "timestamp": "205800000" } }, { "label": { "noise": "[h::breath]" } }, { "timestamp": { "timestamp": "208900000" } }, { "label": { "plus": " " } }, { "label": { "item": "na" } } ], "receivedAt": "177044730" }
{ "events": [ { "label": { "plus": " " } }, { "label": { "item": "místě" } } ], "receivedAt": "177544050" }
{ "events": [ { "timestamp": { "timestamp": "212500000" } }, { "timestamp": { "recovery": "212500000" } }, { "label": { "plus": " " } }, { "label": { "item": "Jana" } } ], "receivedAt": "189845200" }
{ "events": [ { "timestamp": { "timestamp": "214900000" } }, { "timestamp": { "recovery": "214900000" } }, { "label": { "plus": " " } }, { "label": { "item": "Čermáková" } } ], "receivedAt": "190347700" }
{ "events": [ { "timestamp": { "timestamp": "222800000" } }, { "timestamp": { "recovery": "222800000" } }, { "label": { "plus": " " } }, { "label": { "item": "Jano" } }, { "timestamp": { "timestamp": "226400000" } }, { "timestamp": { "recovery": "226400000" } }, { "label": { "plus": " " } }, { "label": { "item": "otázka" } }, { "timestamp": { "timestamp": "231000000" } }, { "label": { "plus": " " } }, { "label": { "item": "jasná" } } ], "receivedAt": "198628360" }
{ "events": [ { "timestamp": { "timestamp": "235600000" } }, { "label": { "plus": " " } }, { "label": { "item": "co" } } ], "receivedAt": "202480320" }
{ "events": [ { "timestamp": { "timestamp": "237200000" } }, { "timestamp": { "recovery": "237200000" } }, { "label": { "plus": " " } }, { "label": { "item": "už" } } ], "receivedAt": "209443440" }
{ "events": [ { "timestamp": { "timestamp": "238900000" } }, { "timestamp": { "recovery": "238900000" } }, { "label": { "plus": " " } }, { "label": { "item": "prošlo" } } ], "receivedAt": "209944160" }
{ "events": [ { "timestamp": { "timestamp": "242800000" } }, { "label": { "noise": "[n::rumble]" } }, { "timestamp": { "timestamp": "250100000" } }, { "timestamp": { "recovery": "250100000" } }, { "label": { "plus": " " } }, { "label": { "item": "hezký" } } ], "receivedAt": "217694090" }
{ "events": [ { "timestamp": { "timestamp": "252700000" } }, { "timestamp": { "recovery": "252700000" } }, { "label": { "plus": " " } }, { "label": { "item": "večer" } }, { "timestamp": { "timestamp": "255900000" } }, { "timestamp": { "recovery": "255900000" } }, { "label": { "noise": "[h::breath]" } }, { "timestamp": { "timestamp": "258300000" } }, { "label": { "plus": " " } }, { "label": { "item": "tak" } }, { "timestamp": { "timestamp": "260100000" } }, { "label": { "plus": " " } }, { "label": { "item": "já" } } ], "receivedAt": "221446340" }
{ "events": [ { "timestamp": { "timestamp": "261000000" } }, { "label": { "plus": " " } }, { "label": { "item": "musím" } }, { "timestamp": { "timestamp": "263100000" } }, { "timestamp": { "recovery": "263100000" } }, { "label": { "plus": " " } }, { "label": { "item": "v" } } ], "receivedAt": "221944470" }
{ "events": [ { "label": { "plus": " " } }, { "label": { "item": "úvodu" } }, { "timestamp": { "timestamp": "266400000" } }, { "timestamp": { "recovery": "266400000" } }, { "label": { "plus": " " } }, { "label": { "item": "obecně" } } ], "receivedAt": "227944230" }
{ "events": [ { "timestamp": { "timestamp": "270000000" } }, { "label": { "plus": " " } }, { "label": { "item": "konstatovat" } } ], "receivedAt": "228445160" }
{ "events": [ { "timestamp": { "timestamp": "275700000" } }, { "timestamp": { "recovery": "275700000" } }, { "label": { "plus": " " } }, { "label": { "item": "že" } }, { "timestamp": { "timestamp": "277200000" } }, { "timestamp": { "recovery": "277200000" } }, { "label": { "plus": " " } }, { "label": { "item": "dopady" } }, { "timestamp": { "timestamp": "280300000" } }, { "label": { "plus": " " } }, { "label": { "item": "té" } }, { "timestamp": { "timestamp": "281500000" } }, { "label": { "plus": " " } }, { "label": { "item": "vládní" } } ], "receivedAt": "237943620" }
{ "events": [ { "timestamp": { "timestamp": "285200000" } }, { "label": { "plus": " " } }, { "label": { "item": "krize" } } ], "receivedAt": "238444050" }
{ "events": [ { "timestamp": { "timestamp": "287900000" } }, { "timestamp": { "recovery": "287900000" } }, { "label": { "plus": " " } }, { "label": { "item": "na" } } ], "receivedAt": "242946670" }
{ "events": [ { "timestamp": { "timestamp": "289100000" } }, { "timestamp": { "recovery": "289100000" } }, { "label": { "plus": " " } }, { "label": { "item": "projednávání" } } ], "receivedAt": "243443800" }
{ "events": [ { "timestamp": { "timestamp": "296100000" } }, { "timestamp": { "recovery": "296100000" } }, { "label": { "plus": " " } }, { "label": { "item": "jednotlivých" } }, { "timestamp": { "timestamp": "301300000" } }, { "timestamp": { "recovery": "301300000" } }, { "label": { "plus": " " } }, { "label": { "item": "reformních" } } ], "receivedAt": "250642290" }
{ "events": [ { "timestamp": { "timestamp": "306200000" } }, { "label": { "plus": " " } }, { "label": { "item": "zákonů" } } ], "receivedAt": "251144090" }
{ "events": [ { "timestamp": { "timestamp": "310700000" } }, { "timestamp": { "recovery": "310700000" } }, { "label": { "plus": " " } }, { "label": { "item": "tady" } }, { "timestamp": { "timestamp": "312500000" } }, { "timestamp": { "recovery": "312500000" } }, { "label": { "plus": " " } }, { "label": { "item": "v" } } ], "receivedAt": "258543990" }
{ "events": [ { "label": { "plus": " " } }, { "label": { "item": "Poslanecké" } } ], "receivedAt": "259043170" }
{ "events": [ { "timestamp": { "timestamp": "318600000" } }, { "timestamp": { "recovery": "318600000" } }, { "label": { "plus": " " } }, { "label": { "item": "sněmovně" } }, { "timestamp": { "timestamp": "323300000" } }, { "timestamp": { "recovery": "323300000" } }, { "label": { "noise": "[h::breath]" } }, { "timestamp": { "timestamp": "326600000" } }, { "timestamp": { "recovery": "326600000" } }, { "label": { "plus": " " } }, { "label": { "item": "zatím" } } ], "receivedAt": "279343900" }
{ "events": [ { "timestamp": { "timestamp": "331800000" } }, { "label": { "plus": " " } }, { "label": { "item": "vidět" } } ], "receivedAt": "279845160" }
{ "events": [ { "timestamp": { "timestamp": "335400000" } }, { "timestamp": { "recovery": "335400000" } }, { "label": { "plus": " " } }, { "label": { "item": "nejsou" } }, { "timestamp": { "timestamp": "339900000" } }, { "timestamp": { "recovery": "339900000" } }, { "label": { "noise": "[h::breath]" } }, { "timestamp": { "timestamp": "342500000" } }, { "label": { "plus": " " } }, { "label": { "item": "ve" } }, { "timestamp": { "timestamp": "344400000" } }, { "label": { "plus": " " } }, { "label": { "item": "vládním" } } ], "receivedAt": "286643500" }
{ "events": [ { "timestamp": { "timestamp": "349500000" } }, { "label": { "plus": " " } }, { "label": { "item": "poslancům" } }, { "timestamp": { "timestamp": "354300000" } }, { "timestamp": { "recovery": "354300000" } }, { "label": { "plus": " " } }, { "label": { "item": "se" } } ], "receivedAt": "287143290" }
{ "events": [ { "label": { "plus": " " } }, { "label": { "item": "už" } } ], "receivedAt": "292811420" }
{ "events": [ { "timestamp": { "timestamp": "357200000" } }, { "timestamp": { "recovery": "357200000" } }, { "label": { "plus": " " } }, { "label": { "item": "podařilo" } }, { "timestamp": { "timestamp": "361500000" } }, { "timestamp": { "recovery": "361500000" } }, { "label": { "plus": " " } }, { "label": { "item": "propustit" } } ], "receivedAt": "297145590" }
{ "events": [ { "timestamp": { "timestamp": "365900000" } }, { "label": { "plus": " " } }, { "label": { "item": "do" } } ], "receivedAt": "297643920" }
{ "events": [ { "timestamp": { "timestamp": "367000000" } }, { "timestamp": { "recovery": "367000000" } }, { "label": { "plus": " " } }, { "label": { "item": "dalšího" } } ], "receivedAt": "303144190" }
{ "events": [ { "timestamp": { "timestamp": "371100000" } }, { "timestamp": { "recovery": "371100000" } }, { "label": { "plus": " " } }, { "label": { "item": "projednávání" } } ], "receivedAt": "303644420" }
{ "events": [ { "timestamp": { "timestamp": "378700000" } }, { "timestamp": { "recovery": "378700000" } }, { "label": { "plus": " " } }, { "label": { "item": "zákon" } }, { "timestamp": { "timestamp": "382100000" } }, { "label": { "plus": " " } }, { "label": { "item": "o" } } ], "receivedAt": "316245330" }
{ "events": [ { "timestamp": { "timestamp": "382900000" } }, { "timestamp": { "recovery": "382900000" } }, { "label": { "plus": " " } }, { "label": { "item": "veřejných" } } ], "receivedAt": "316742940" }
{ "events": [ { "timestamp": { "timestamp": "386700000" } }, { "timestamp": { "recovery": "386700000" } }, { "label": { "plus": " " } }, { "label": { "item": "zakázkách" } }, { "timestamp": { "timestamp": "394300000" } }, { "label": { "noise": "[h::ehm]" } }, { "timestamp": { "timestamp": "395800000" } }, { "timestamp": { "recovery": "395800000" } }, { "label": { "plus": " " } }, { "label": { "item": "který" } }, { "label": { "plus": " " } }, { "label": { "item": "je" } } ], "receivedAt": "328344200" }
{ "events": [ { "timestamp": { "timestamp": "400000000" } }, { "label": { "plus": " " } }, { "label": { "item": "má" } }, { "timestamp": { "timestamp": "403200000" } }, { "timestamp": { "recovery": "403200000" } }, { "label": { "noise": "[h::breath]" } }, { "timestamp": { "timestamp": "405900000" } }, { "timestamp": { "recovery": "405900000" } }, { "label": { "plus": " " } }, { "label": { "item": "omezit" } } ], "receivedAt": "333544810" }
{ "events": [ { "timestamp": { "timestamp": "412700000" } }, { "label": { "noise": "[h::ehm]" } }, { "timestamp": { "timestamp": "413800000" } }, { "label": { "plus": " " } }, { "label": { "item": "korupci" } } ], "receivedAt": "334045710" }
{ "events": [ { "timestamp": { "timestamp": "419000000" } }, { "timestamp": { "recovery": "419000000" } }, { "label": { "plus": " " } }, { "label": { "item": "při" } }, { "timestamp": { "timestamp": "420800000" } }, { "timestamp": { "recovery": "420800000" } }, { "label": { "plus": " " } }, { "label": { "item": "zadávání" } } ], "receivedAt": "349244020" }
{ "events": [ { "timestamp": { "timestamp": "426300000" } }, { "label": { "plus": " " } }, { "label": { "item": "veřejných" } } ], "receivedAt": "349745920" }
{ "events": [ { "timestamp": { "timestamp": "429800000" } }, { "timestamp": { "recovery": "429800000" } }, { "label": { "plus": " " } }, { "label": { "item": "zakázek" } } ], "receivedAt": "364647610" }
{ "events": [ { "timestamp": { "timestamp": "435300000" } }, { "timestamp": { "recovery": "435300000" } }, { "label": { "plus": " " } }, { "label": { "item": "zprůhlednit" } }, { "timestamp": { "timestamp": "442800000" } }, { "label": { "noise": "[h::ehm]" } }, { "timestamp": { "timestamp": "443800000" } }, { "timestamp": { "recovery": "443800000" } }, { "label": { "plus": " " } }, { "label": { "item": "zadávání" } }, { "timestamp": { "timestamp": "451200000" } }, { "label": { "noise": "[h::breath]" } }, { "timestamp": { "timestamp": "453900000" } }, { "label": { "plus": " " } }, { "label": { "item": "pak" } }, { "timestamp": { "timestamp": "456100000" } }, { "label": { "plus": " " } }, { "label": { "item": "taky" } } ], "receivedAt": "365144260" }
{ "events": [ { "timestamp": { "timestamp": "459300000" } }, { "label": { "plus": " " } }, { "label": { "item": "zákon" } }, { "timestamp": { "timestamp": "462900000" } }, { "label": { "plus": " " } }, { "label": { "item": "o" } } ], "receivedAt": "374044920" }
{ "events": [ { "timestamp": { "timestamp": "463600000" } }, { "timestamp": { "recovery": "463600000" } }, { "label": { "plus": " " } }, { "label": { "item": "stavebním" } } ], "receivedAt": "374546800" }
{ "events": [ { "timestamp": { "timestamp": "467800000" } }, { "timestamp": { "recovery": "467800000" } }, { "label": { "plus": " " } }, { "label": { "item": "spoření" } }, { "timestamp": { "timestamp": "472600000" } }, { "timestamp": { "recovery": "472600000" } }, { "label": { "plus": " " } }, { "label": { "item": "který" } } ], "receivedAt": "379681830" }
{ "events": [ { "label": { "plus": " " } }, { "label": { "item": "má" } } ], "receivedAt": "387547630" }
{ "events": [ { "timestamp": { "timestamp": "476300000" } }, { "timestamp": { "recovery": "476300000" } }, { "label": { "plus": " " } }, { "label": { "item": "zkrátit" } }, { "timestamp": { "timestamp": "482000000" } }, { "timestamp": { "recovery": "482000000" } }, { "label": { "plus": " " } }, { "label": { "item": "příspěvek" } } ], "receivedAt": "388043150" }
{ "events": [ { "timestamp": { "timestamp": "486700000" } }, { "label": { "plus": " " } }, { "label": { "item": "státu" } }, { "timestamp": { "timestamp": "490800000" } }, { "label": { "noise": "[h::breath]" } }, { "timestamp": { "timestamp": "493200000" } }, { "timestamp": { "recovery": "493200000" } }, { "label": { "plus": " " } }, { "label": { "item": "na" } } ], "receivedAt": "409545240" }
{ "events": [ { "label": { "plus": " " } }, { "label": { "item": "stavební" } }, { "timestamp": { "timestamp": "498700000" } }, { "timestamp": { "recovery": "498700000" } }, { "label": { "plus": " " } }, { "label": { "item": "spoření" } }, { "timestamp": { "timestamp": "503600000" } }, { "label": { "plus": " " } }, { "label": { "item": "a" } }, { "label": { "plus": " " } }, { "label": { "item": "teď" } } ], "receivedAt": "410044630" }
{ "events": [ { "timestamp": { "timestamp": "505900000" } }, { "label": { "noise": "[n::rumble]" } }, { "timestamp": { "timestamp": "506600000" } }, { "label": { "plus": " " } }, { "label": { "item": "už" } }, { "timestamp": { "timestamp": "508600000" } }, { "timestamp": { "recovery": "508600000" } }, { "label": { "noise": "[n::rumble]" } }, { "timestamp": { "timestamp": "509600000" } }, { "label": { "plus": " " } }, { "label": { "item": "nějakou" } }, { "timestamp": { "timestamp": "513600000" } }, { "label": { "plus": " " } }, { "label": { "item": "dobu" } } ], "receivedAt": "422743790" }
{ "events": [ { "timestamp": { "timestamp": "516400000" } }, { "label": { "noise": "[h::breath]" } }, { "timestamp": { "timestamp": "519500000" } }, { "label": { "plus": " " } }, { "label": { "item": "poslanci" } } ], "receivedAt": "423243890" }
{ "events": [ { "timestamp": { "timestamp": "524800000" } }, { "timestamp": { "recovery": "524800000" } }, { "label": { "plus": " " } }, { "label": { "item": "jednají" } }, { "timestamp": { "timestamp": "529000000" } }, { "label": { "plus": " " } }, { "label": { "item": "o" } } ], "receivedAt": "438551120" }
{ "events": [ { "timestamp": { "timestamp": "530100000" } }, { "timestamp": { "recovery": "530100000" } }, { "label": { "plus": " " } }, { "label": { "item": "změnách" } }, { "timestamp": { "timestamp": "537100000" } }, { "label": { "plus": " " } }, { "label": { "item": "v" } }, { "timestamp": { "timestamp": "538700000" } }, { "timestamp": { "recovery": "538700000" } }, { "label": { "plus": " " } }, { "label": { "item": "dani" } }, { "label": { "plus": " " } }, { "label": { "item": "z" } }, { "label": { "plus": " " } }, { "label": { "item": "přidané" } } ], "receivedAt": "439042860" }
{ "events": [ { "label": { "plus": " " } }, { "label": { "item": "hodnoty" } }, { "timestamp": { "timestamp": "551800000" } }, { "timestamp": { "recovery": "551800000" } }, { "label": { "noise": "[n::rumble]" } }, { "timestamp": { "timestamp": "555400000" } }, { "label": { "noise": "[h::ehm]" } }, { "timestamp": { "timestamp": "556400000" } }, { "timestamp": { "recovery": "556400000" } }, { "label": { "plus": " " } }, { "label": { "item": "opozice" } } ], "receivedAt": "463944380" }
{ "events": [ { "timestamp": { "timestamp": "563000000" } }, { "label": { "plus": " " } }, { "label": { "item": "statečně" } } ], "receivedAt": "464444580" }
{ "events": [ { "timestamp": { "timestamp": "569100000" } }, { "timestamp": { "recovery": "569100000" } }, { "label": { "plus": " " } }, { "label": { "item": "kritizuje" } }, { "timestamp": { "timestamp": "576000000" } }, { "timestamp": { "recovery": "576000000" } }, { "label": { "plus": " " } }, { "label": { "item": "a" } }, { "timestamp": { "timestamp": "577100000" } }, { "label": { "plus": " " } }, { "label": { "item": "nesouhlasí" } }, { "timestamp": { "timestamp": "584800000" } }, { "label": { "plus": " " } }, { "label": { "item": "ale" } }, { "label": { "plus": " " } }, { "label": { "item": "to" } }, { "label": { "plus": " " } }, { "label": { "item": "je" } }, { "timestamp": { "timestamp": "591700000" } }, { "label": { "plus": " " } }, { "label": { "item": "to" } }, { "timestamp": { "timestamp": "593100000" } }, { "label": { "plus": " " } }, { "label": { "item": "jediné" } } ], "receivedAt": "478143110" }
{ "events": [ { "timestamp": { "timestamp": "597500000" } }, { "label": { "plus": " " } }, { "label": { "item": "co" } } ], "receivedAt": "478644350" }
{ "events": [ { "timestamp": { "timestamp": "599500000" } }, { "timestamp": { "recovery": "599500000" } }, { "label": { "plus": " " } }, { "label": { "item": "teď" } }, { "timestamp": { "timestamp": "601900000" } }, { "timestamp": { "recovery": "601900000" } }, { "label": { "plus": " " } }, { "label": { "item": "v" } } ], "receivedAt": "489744800" }
{ "events": [ { "label": { "plus": " " } }, { "label": { "item": "Poslanecké" } }, { "timestamp": { "timestamp": "607500000" } }, { "timestamp": { "recovery": "607500000" } }, { "label": { "plus": " " } }, { "label": { "item": "sněmovně" } } ], "receivedAt": "490243500" }
{ "events": [ { "timestamp": { "timestamp": "611500000" } }, { "label": { "plus": " " } }, { "label": { "item": "zmůže" } }, { "timestamp": { "timestamp": "615900000" } }, { "timestamp": { "recovery": "615900000" } }, { "label": { "noise": "[h::breath]" } }, { "timestamp": { "timestamp": "618100000" } }, { "timestamp": { "recovery": "618100000" } }, { "label": { "plus": " " } }, { "label": { "item": "koaličním" } } ], "receivedAt": "518241890" }
{ "events": [ { "timestamp": { "timestamp": "622900000" } }, { "label": { "plus": " " } }, { "label": { "item": "poslancům" } } ], "receivedAt": "518740770" }
{ "events": [ { "timestamp": { "timestamp": "627500000" } }, { "timestamp": { "recovery": "627500000" } }, { "label": { "plus": " " } }, { "label": { "item": "zatím" } }, { "timestamp": { "timestamp": "630700000" } }, { "label": { "noise": "[h::breath]" } }, { "timestamp": { "timestamp": "632600000" } }, { "timestamp": { "recovery": "632600000" } }, { "label": { "plus": " " } }, { "label": { "item": "stále" } } ], "receivedAt": "519240650" }
{ "events": [ { "timestamp": { "timestamp": "637000000" } }, { "label": { "plus": " " } }, { "label": { "item": "prochází" } }, { "timestamp": { "timestamp": "643000000" } }, { "timestamp": { "recovery": "643000000" } }, { "label": { "noise": "[n::rumble]" } }, { "timestamp": { "timestamp": "644900000" } }, { "timestamp": { "recovery": "644900000" } }, { "label": { "noise": "[h::ehm]" } }, { "timestamp": { "timestamp": "646400000" } }, { "label": { "plus": " " } }, { "label": { "item": "to" } }, { "timestamp": { "timestamp": "647800000" } }, { "label": { "plus": " " } }, { "label": { "item": "na" } }, { "timestamp": { "timestamp": "648800000" } }, { "label": { "plus": " " } }, { "label": { "item": "čem" } }, { "timestamp": { "timestamp": "650900000" } }, { "label": { "plus": " " } }, { "label": { "item": "se" } } ], "receivedAt": "519742460" }
{ "events": [ { "timestamp": { "timestamp": "652200000" } }, { "label": { "plus": " " } }, { "label": { "item": "domů" } }, { "timestamp": { "timestamp": "655000000" } } ], "receivedAt": "520245670" }
